{
  "$schema": "https://docs.renovatebot.com/renovate-schema.json",
  "description": "Default preset for use with Renovate's repos",
  "extends": [
    "config:best-practices",
    ":semanticCommits",
    ":semanticCommitScope(deps)",
    "group:postcss",
    ":maintainLockFilesMonthly",
    "docker:enableMajor"
  ],
  "timezone": "America/Santiago",
  "assigneesFromCodeOwners": true,
  "commitMessageAction": "bump",
  "commitMessageTopic": "{{depName}}",
  "commitMessageExtra": "from {{currentValue}} to {{#if isPinDigest}}{{{newDigestShort}}}{{else}}{{#if isMajor}}{{prettyNewMajor}}{{else}}{{#if isSingleVersion}}{{prettyNewVersion}}{{else}}{{#if newValue}}{{{newValue}}}{{else}}{{{newDigestShort}}}{{/if}}{{/if}}{{/if}}{{/if}}",
  "labels": ["dependencies"],
  "github-actions": {
    "enabled": true
  },
  "packageRules": [
    {
      "description": "Require dashboard approval for major updates",
      "dependencyDashboardApproval": true,
      "matchUpdateTypes": ["major"],
      "labels": ["update-type", "major"]
    },
    {
      "description": "Five days stability period for npm packages",
      "matchDatasources": ["npm"],
      "minimumReleaseAge": "5 days"
    },
    { "matchDatasources": ["docker"], "labels": ["dependencies", "docker"] },
    { "matchDatasources": ["npm"], "labels": ["dependencies", "javascript"] }
  ]
}
