{
  "$schema": "https://docs.renovatebot.com/renovate-schema.json",
  "extends": ["gitlab>renovate-runner/renovate-config"],
  "packageRules": [
    {
      "extends": ["monorepo:nrwl"],
      "groupName": "nrwl monorepo",
      "description": "Require approval for @nx packages",
      "dependencyDashboardApproval": true,
      "matchUpdateTypes": ["digest", "patch", "minor", "major"]
    }
  ]
}
